{
  "port": "3000",
  "autoReload": true,
  "exportDirectory": "/",
  "enableChalkboard": false,
  "enableOverview": false,
  "enableMenu": true,
  "enablePointer": false,
  "enableTimeBar": false,
  "theme": "css/mattropolis.css",
  "highlightTheme": "zenburn",
  "transition": "slide",
  "transitionSpeed": "default",
  "controls": true,
  "progress": true,
  "slideNumber": true,
  "showGrid": false,
  "autoComplete": "inPreview",
  "paneMode": "split",
  "motm": "2024-01-02T20:05:49.699Z"
}